{
    "count": 37,
    "next": "http://swapi.co/api/species/?page=2",
    "previous": null,
    "results": [
        {
            "name": "Hutt",
            "classification": "gastropod",
            "designation": "sentient",
            "average_height": "300",
            "skin_colors": "green, brown, tan",
            "hair_colors": "n/a",
            "eye_colors": "yellow, red",
            "average_lifespan": "1000",
            "homeworld": "http://swapi.co/api/planets/24/",
            "language": "Huttese",
            "people": [
                "http://swapi.co/api/people/16/"
            ],
            "films": [
                "http://swapi.co/api/films/3/",
                "http://swapi.co/api/films/1/"
            ],
            "created": "2014-12-10T17:12:50.410000Z",
            "edited": "2014-12-20T21:36:42.146000Z",
            "url": "http://swapi.co/api/species/5/"
        },
        {
            "name": "Ewok",
            "classification": "mammal",
            "designation": "sentient",
            "average_height": "100",
            "skin_colors": "brown",
            "hair_colors": "white, brown, black",
            "eye_colors": "orange, brown",
            "average_lifespan": "unknown",
            "homeworld": "http://swapi.co/api/planets/7/",
            "language": "Ewokese",
            "people": [
                "http://swapi.co/api/people/30/"
            ],
            "films": [
                "http://swapi.co/api/films/3/"
            ],
            "created": "2014-12-18T11:22:00.285000Z",
            "edited": "2014-12-20T21:36:42.155000Z",
            "url": "http://swapi.co/api/species/9/"
        } 
    ]
}
